Sangwon Ju’s Personal Page - EDA Assignment 3: Chapter 5
…
        dplyr::filter(stringr::str_detect(name,pattern="삼성+")) %>% 
        return() 
}

# 삼성전자 코드
code_samsung()

# A tibble: 24 × 6
   market name              code   name_full                 name_eng    code_…¹
   <chr>  <chr>             <chr>  <chr>                     <chr>       <chr>  
 1 KOSPI  삼성SDI우         006405 삼성SDI1우선주            SAMSUNG SD… KR7006…
 2 KOSPI  삼성SDI           006400 삼성SDI보통주             SAMSUNG SD… KR7006…
 3 KOSPI  삼성공조          006660 삼성공조보통주            SamsungCli… KR7006…
 4 KOSDAQ 삼성스팩4호       377630 삼성기업인수목적4호       SAMSUNG SP… KR7377…
 5 KOSDAQ 삼성스팩6호       425290 삼성기업인수목적6호       SAMSUNG SP… KR7425…
 6 KOSDAQ 삼성머스트스팩5호 380320 삼성머스트기업인수목적5호 SAMSUNG MU… KR7380…
 7 KOSPI  삼성물산우B       02826K 삼성물산1우선주(신형)     SAMSUNG C&… KR7028…
 8 KOSPI  삼성물산          028260 삼성물산보통주            SAMSUNG C&… KR7028…
 9 KOSPI  삼성바이오로직스  207940 삼성바이오로직스보통주    SAMSUNG BI… KR7207…
10 KOSPI  삼성생명          032830 삼성생명보험보통주        Samsung Li… KR7032…
# … with 14 more rows, and abbreviated variable name ¹​code_full
…
